"","d","variable","value","L1"
"1",4.65410889822805,"const",1.00466290972225,"P+Q"
"2",4.58556766087996,"const",1.00542352516381,"P+Q"
"3",4.52369044386577,"const",1.00623141909202,"P+Q"
"4",4.4673005153699,"const",1.00701112002015,"P+Q"
"5",4.41551172387058,"const",1.00776453316075,"P+Q"
"6",4.3676505944283,"const",1.00859116148986,"P+Q"
"7",4.32314876862919,"const",1.00940110071484,"P+Q"
"8",4.28156637213921,"const",1.01019527620358,"P+Q"
"9",4.23715327855824,"const",1.0110844965496,"P+Q"
"10",4.20074946234238,"const",1.01184172086887,"P+Q"
"11",4.16162466575844,"const",1.01267513918213,"P+Q"
"12",4.12486306733904,"const",1.01359536599317,"P+Q"
"13",4.09430289489153,"const",1.01442362628059,"P+Q"
"14",4.06125346061117,"const",1.0153085369577,"P+Q"
"15",4.02990508932245,"const",1.01617196306191,"P+Q"
"16",4.0000908302927,"const",1.0170147243955,"P+Q"
"17",3.9684165907261,"const",1.01800419951943,"P+Q"
"18",3.94450891110653,"const",1.0187782313187,"P+Q"
"19",3.91558073289871,"const",1.01972301710049,"P+Q"
"20",3.8907821678109,"const",1.02063157913016,"P+Q"
"21",3.86430754611227,"const",1.02167457019184,"P+Q"
"22",3.83897015314352,"const",1.02254536883814,"P+Q"
"23",3.8170738963391,"const",1.02340903151461,"P+Q"
"24",3.79363950069417,"const",1.02439195428959,"P+Q"
"25",3.77110237672782,"const",1.02535528136706,"P+Q"
"26",3.74939521024815,"const",1.02629956036501,"P+Q"
"27",3.72846295451311,"const",1.0273914724105,"P+Q"
"28",3.71015240894498,"const",1.02819238231057,"P+Q"
"29",3.68868911889605,"const",1.02919552071282,"P+Q"
"30",3.66976219285588,"const",1.03024633726491,"P+Q"
"31",3.64973412138593,"const",1.03138136481594,"P+Q"
"32",3.63361852664081,"const",1.03213446647873,"P+Q"
"33",3.61477563438461,"const",1.03323674826979,"P+Q"
"34",3.59653506999462,"const",1.03431969947847,"P+Q"
"35",3.57885832601206,"const",1.03538377235903,"P+Q"
"36",3.56171038027792,"const",1.03642939414649,"P+Q"
"37",3.54639307380634,"const",1.03738978533726,"P+Q"
"38",3.53016236732067,"const",1.03840451234852,"P+Q"
"39",3.51437532689732,"const",1.03940186994566,"P+Q"
"40",3.49781134695808,"const",1.04064025531734,"P+Q"
"41",3.48403578822372,"const",1.04155299114409,"P+Q"
"42",3.46943957963563,"const",1.04250329929695,"P+Q"
"43",3.45411845175891,"const",1.0436912892028,"P+Q"
"44",3.43920731574979,"const",1.04486041798059,"P+Q"
"45",3.42569069864428,"const",1.04597941959181,"P+Q"
"46",3.41247613902973,"const",1.04686713354416,"P+Q"
"47",3.39766008101026,"const",1.04823606601194,"P+Q"
"48",3.38415074959573,"const",1.04933793359797,"P+Q"
"49",3.37184027515973,"const",1.05040816333905,"P+Q"
"50",3.35891839143458,"const",1.05148042068131,"P+Q"
"51",3.346282783635,"const",1.05253599517189,"P+Q"
"52",3.33472653630144,"const",1.0535727762986,"P+Q"
"53",3.32181861818338,"const",1.0548405396309,"P+Q"
"54",3.30920816370503,"const",1.05608965950274,"P+Q"
"55",3.296880681195,"const",1.05732045853732,"P+Q"
"56",3.28624717413311,"const",1.05831162016567,"P+Q"
"57",3.27440399805122,"const",1.05951257614289,"P+Q"
"58",3.26280797119926,"const",1.06069603020239,"P+Q"
"59",3.25144796715495,"const",1.06186225898272,"P+Q"
"60",3.24094843680136,"const",1.06304275987499,"P+Q"
"61",3.22939713116238,"const",1.06441025202473,"P+Q"
"62",3.21868633867232,"const",1.06552948788978,"P+Q"
"63",3.20875619339074,"const",1.06667576199242,"P+Q"
"64",3.1978523811384,"const",1.06799422615188,"P+Q"
"65",3.18716307452921,"const",1.06929447434231,"P+Q"
"66",3.1777486873907,"const",1.07040731963008,"P+Q"
"67",3.16743222212566,"const",1.07167761851509,"P+Q"
"68",3.15730541357331,"const",1.07293043750404,"P+Q"
"69",3.14736048949237,"const",1.07416602545458,"P+Q"
"70",3.13807089708864,"const",1.07545630675055,"P+Q"
"71",3.12845657310325,"const",1.07666247148573,"P+Q"
"72",3.11854897046361,"const",1.0780705972514,"P+Q"
"73",3.10970727932776,"const",1.07932633763533,"P+Q"
"74",3.10056077165504,"const",1.08048659309396,"P+Q"
"75",3.09113728122475,"const",1.08184646007213,"P+Q"
"76",3.08269508090243,"const",1.08306915246711,"P+Q"
"77",3.07356582653089,"const",1.08439898060883,"P+Q"
"78",3.06419642511504,"const",1.08592395886375,"P+Q"
"79",3.0561296722391,"const",1.08711354897716,"P+Q"
"80",3.04742290599062,"const",1.08839596562407,"P+Q"
"81",3.03848853435621,"const",1.0898713441496,"P+Q"
"82",3.03040548805168,"const",1.09123828328128,"P+Q"
"83",3.02208629653022,"const",1.09247402525403,"P+Q"
"84",3.01355159025626,"const",1.09390057135021,"P+Q"
"85",3.00580358156297,"const",1.09523367559706,"P+Q"
"86",2.99751318527137,"const",1.09662977468786,"P+Q"
"87",2.98903507714469,"const",1.09821256758809,"P+Q"
"88",2.98160273230636,"const",1.09951183491479,"P+Q"
"89",2.97366345713287,"const",1.10085996007312,"P+Q"
"90",2.96554587608183,"const",1.10239276519111,"P+Q"
"91",2.95839831525078,"const",1.10365951542752,"P+Q"
"92",2.95049950622773,"const",1.10516145171326,"P+Q"
"93",2.94271454578758,"const",1.10664501819249,"P+Q"
"94",2.93556663471505,"const",1.10807841397721,"P+Q"
"95",2.92798606079067,"const",1.10953123756481,"P+Q"
"96",2.92050840354042,"const",1.11096628635611,"P+Q"
"97",2.91362229993914,"const",1.1123659144424,"P+Q"
"98",2.90609002086433,"const",1.11396641702166,"P+Q"
"99",2.89936600974137,"const",1.11534477343939,"P+Q"
"100",2.8920239513138,"const",1.11691380291051,"P+Q"
"101",2.88478030794014,"const",1.11846419497451,"P+Q"
"102",2.87828889188864,"const",1.11980961224161,"P+Q"
"103",2.87121807797303,"const",1.12132955817298,"P+Q"
"104",2.86402772574612,"const",1.12302187613494,"P+Q"
"105",2.85775227678248,"const",1.12433496449495,"P+Q"
"106",2.85073315393118,"const",1.12599552676325,"P+Q"
"107",2.8443918611697,"const",1.12747722938667,"P+Q"
"108",2.83753868963993,"const",1.12910582160555,"P+Q"
"109",2.83077092597416,"const",1.13071555554381,"P+Q"
"110",2.82463533123968,"const",1.13216346046733,"P+Q"
"111",2.81801889525508,"const",1.13374222221406,"P+Q"
"112",2.8118309531116,"const",1.13535439240756,"P+Q"
"113",2.80536130206098,"const",1.13690197615152,"P+Q"
"114",2.79879748702031,"const",1.13861482322057,"P+Q"
"115",2.79280490900249,"const",1.14019185479845,"P+Q"
"116",2.78638611151855,"const",1.14187234171731,"P+Q"
"117",2.78051292744782,"const",1.14342758982844,"P+Q"
"118",2.77423099165912,"const",1.14507634110002,"P+Q"
"119",2.76801916925758,"const",1.14670640096215,"P+Q"
"120",2.76217057195536,"const",1.14840719529641,"P+Q"
"121",2.75608749111785,"const",1.15000568177368,"P+Q"
"122",2.7503512947587,"const",1.15168409714268,"P+Q"
"123",2.74425167379405,"const",1.15342887987043,"P+Q"
"124",2.73821881566301,"const",1.15515430490529,"P+Q"
"125",2.73264866515474,"const",1.15679726952848,"P+Q"
"126",2.72673590740471,"const",1.15849063066385,"P+Q"
"127",2.72126598440942,"const",1.16011190690152,"P+Q"
"128",2.71534254057545,"const",1.16194786467257,"P+Q"
"129",2.70996994395216,"const",1.16354742222374,"P+Q"
"130",2.70416191843573,"const",1.16535053800776,"P+Q"
"131",2.69829724791161,"const",1.16730616611921,"P+Q"
"132",2.69306834951023,"const",1.16887137356925,"P+Q"
"133",2.68731706521036,"const",1.17079318369275,"P+Q"
"134",2.68206521489599,"const",1.17250786099345,"P+Q"
"135",2.67642386629357,"const",1.17439573583247,"P+Q"
"136",2.67126090808299,"const",1.17608818179712,"P+Q"
"137",2.66572376138205,"const",1.17794271533132,"P+Q"
"138",2.66024052694046,"const",1.17977737182015,"P+Q"
"139",2.65510778072564,"const",1.18160267538746,"P+Q"
"140",2.6497227848224,"const",1.18340419832106,"P+Q"
"141",2.64467367277652,"const",1.1852068220613,"P+Q"
"142",2.63928873932657,"const",1.18714153779537,"P+Q"
"143",2.63432082945264,"const",1.18892148492031,"P+Q"
"144",2.62903008100042,"const",1.19082241970994,"P+Q"
"145",2.62405146197946,"const",1.19274437418604,"P+Q"
"146",2.61885206724744,"const",1.19461143348931,"P+Q"
"147",2.61395186363588,"const",1.19651007466891,"P+Q"
"148",2.60875659943881,"const",1.19850634983086,"P+Q"
"149",2.60360849313602,"const",1.20048187627991,"P+Q"
"150",2.59882466503018,"const",1.20234351176566,"P+Q"
"151",2.59376161042413,"const",1.20428489209426,"P+Q"
"152",2.58904828791726,"const",1.20612390230342,"P+Q"
"153",2.58399138244081,"const",1.20819150376102,"P+Q"
"154",2.57927312466133,"const",1.21016733234999,"P+Q"
"155",2.57429921305914,"const",1.21219960581779,"P+Q"
"156",2.56965029705288,"const",1.21415183581425,"P+Q"
"157",2.56475532943602,"const",1.21614934071233,"P+Q"
"158",2.56017249028702,"const",1.21807839257693,"P+Q"
"159",2.55528622506835,"const",1.22019847943192,"P+Q"
"160",2.55070228805163,"const",1.22226081158912,"P+Q"
"161",2.54589288963707,"const",1.22434501924438,"P+Q"
"162",2.54143654040326,"const",1.2262278080685,"P+Q"
"163",2.53663754102936,"const",1.228432143299,"P+Q"
"164",2.53218022448436,"const",1.23044671587007,"P+Q"
"165",2.52745460640879,"const",1.23261470887448,"P+Q"
"166",2.52305732212269,"const",1.23460565113826,"P+Q"
"167",2.51834474807462,"const",1.23689080905974,"P+Q"
"168",2.5140057454203,"const",1.23885816738991,"P+Q"
"169",2.50936314942079,"const",1.24110655541937,"P+Q"
"170",2.50502601619239,"const",1.24320240162778,"P+Q"
"171",2.50045127574149,"const",1.24541399168378,"P+Q"
"172",2.49617022597748,"const",1.24748577787927,"P+Q"
"173",2.49160953259945,"const",1.24981129988924,"P+Q"
"174",2.48738293626505,"const",1.25185908077994,"P+Q"
"175",2.4828869223713,"const",1.25414741087374,"P+Q"
"176",2.4786644423637,"const",1.25632053309384,"P+Q"
"177",2.47423115281685,"const",1.25857165243515,"P+Q"
"178",2.47006102520289,"const",1.26072032917106,"P+Q"
"179",2.46564242990752,"const",1.26308228884362,"P+Q"
"180",2.46147874854435,"const",1.26535377072035,"P+Q"
"181",2.45712084174162,"const",1.26767761799382,"P+Q"
"182",2.45300818240408,"const",1.26992391455956,"P+Q"
"183",2.44870820605909,"const",1.27221018324928,"P+Q"
"184",2.44464435653372,"const",1.27443169380412,"P+Q"
"185",2.44056134884387,"const",1.27678856570825,"P+Q"
"186",2.43630337923068,"const",1.27916725515782,"P+Q"
"187",2.4322690452748,"const",1.28149841262639,"P+Q"
"188",2.42806592713374,"const",1.28383889337671,"P+Q"
"189",2.42407818026613,"const",1.28614473674775,"P+Q"
"190",2.41989076955005,"const",1.28859047849683,"P+Q"
"191",2.41591217851181,"const",1.29101372753995,"P+Q"
"192",2.41177772528884,"const",1.29342044551293,"P+Q"
"193",2.40784441051426,"const",1.29581771977791,"P+Q"
"194",2.40372653861418,"const",1.29832725852976,"P+Q"
"195",2.39983718025146,"const",1.30069864499088,"P+Q"
"196",2.39596685464287,"const",1.30305990354374,"P+Q"
"197",2.39189019861287,"const",1.30565499757538,"P+Q"
"198",2.38803006488304,"const",1.3081305479502,"P+Q"
"199",2.38400311489429,"const",1.31068529934926,"P+Q"
"200",2.38018481604847,"const",1.31313451494729,"P+Q"
"201",2.37620541290705,"const",1.31564944145635,"P+Q"
"202",2.37239783905737,"const",1.31821107395548,"P+Q"
"203",2.36843574539519,"const",1.32082408796199,"P+Q"
"204",2.364668711203,"const",1.32335880051249,"P+Q"
"205",2.36091934684946,"const",1.32588293959036,"P+Q"
"206",2.35702423105607,"const",1.32843945641175,"P+Q"
"207",2.35328622743122,"const",1.33107378179041,"P+Q"
"208",2.34940834922362,"const",1.33372609788256,"P+Q"
"209",2.34570885985857,"const",1.3363331159363,"P+Q"
"210",2.34184883002153,"const",1.33907977374181,"P+Q"
"211",2.33818673162284,"const",1.34165959084393,"P+Q"
"212",2.33454079860051,"const",1.34422882986453,"P+Q"
"213",2.33071929731802,"const",1.34705187810312,"P+Q"
"214",2.32710902498959,"const",1.34959417995472,"P+Q"
"215",2.32332907481322,"const",1.352375061267,"P+Q"
"216",2.31970763757698,"const",1.35515747889613,"P+Q"
"217",2.3161246928925,"const",1.35779555303062,"P+Q"
"218",2.31238231592011,"const",1.36065004416294,"P+Q"
"219",2.30881172973217,"const",1.36339318724096,"P+Q"
"220",2.30510890033202,"const",1.36620467316124,"P+Q"
"221",2.3015720077267,"const",1.36891992342709,"P+Q"
"222",2.29802939392448,"const",1.37175569271254,"P+Q"
"223",2.29436264572615,"const",1.37463854890474,"P+Q"
"224",2.29085327363444,"const",1.37744573888529,"P+Q"
"225",2.28720447833065,"const",1.38041549529453,"P+Q"
"226",2.28372738804205,"const",1.38319422454656,"P+Q"
"227",2.2802456371904,"const",1.38609170319229,"P+Q"
"228",2.27665107609444,"const",1.38899996041663,"P+Q"
"229",2.27320082530986,"const",1.39186857246171,"P+Q"
"230",2.26962366689679,"const",1.39486177466279,"P+Q"
"231",2.26618673856191,"const",1.39783005144044,"P+Q"
"232",2.26276365116284,"const",1.40078669664246,"P+Q"
"233",2.25922126547903,"const",1.40384524212296,"P+Q"
"234",2.25582829865902,"const",1.4067725053898,"P+Q"
"235",2.25244842655146,"const",1.40968836306213,"P+Q"
"236",2.24893997406813,"const",1.41281102868032,"P+Q"
"237",2.24557335722194,"const",1.41582438960954,"P+Q"
"238",2.24208277376424,"const",1.4190273588112,"P+Q"
"239",2.23874493621121,"const",1.42201084929648,"P+Q"
"240",2.23540482804806,"const",1.42510855193003,"P+Q"
"241",2.23196242963408,"const",1.4282466658292,"P+Q"
"242",2.22865035664551,"const",1.43131414053802,"P+Q"
"243",2.22533659979722,"const",1.43449470400712,"P+Q"
"244",2.22192661834762,"const",1.43769260670129,"P+Q"
"245",2.21864039200776,"const",1.44084236267255,"P+Q"
"246",2.21524756233944,"const",1.44411719249318,"P+Q"
"247",2.21198808620532,"const",1.44723627428067,"P+Q"
"248",2.20872750591133,"const",1.45046687461312,"P+Q"
"249",2.2053664832864,"const",1.4537983984914,"P+Q"
"250",2.20213215263131,"const",1.45699776515642,"P+Q"
"251",2.19890925973351,"const",1.46018504127308,"P+Q"
"252",2.19557942442398,"const",1.46357178458897,"P+Q"
"253",2.19237000606462,"const",1.46685003996539,"P+Q"
"254",2.18917183131607,"const",1.47011597541445,"P+Q"
"255",2.18587279077523,"const",1.473556107391,"P+Q"
"256",2.18268821445335,"const",1.4769116612173,"P+Q"
"257",2.17951468091775,"const",1.48025467293937,"P+Q"
"258",2.17624600574926,"const",1.48374639904008,"P+Q"
"259",2.17308615482693,"const",1.48717769348511,"P+Q"
"260",2.16994741542475,"const",1.49047614899099,"P+Q"
"261",2.16670843839285,"const",1.49401808015041,"P+Q"
"262",2.16357298712705,"const",1.49752380318097,"P+Q"
"263",2.16044816629016,"const",1.50101655840348,"P+Q"
"264",2.15724816210117,"const",1.50448767303188,"P+Q"
"265",2.15413693367356,"const",1.50806632278837,"P+Q"
"266",2.15104535705599,"const",1.51151330093181,"P+Q"
"267",2.1478643599598,"const",1.51515046623315,"P+Q"
"268",2.14477714527391,"const",1.51880056970659,"P+Q"
"269",2.14170888854082,"const",1.52231957968878,"P+Q"
"270",2.13855613197573,"const",1.52600183573972,"P+Q"
"271",2.13550112582218,"const",1.52960478616917,"P+Q"
"272",2.13244754384839,"const",1.53331153995707,"P+Q"
"273",2.12932250749699,"const",1.53703724109329,"P+Q"
"274",2.12629057597586,"const",1.54070954093805,"P+Q"
"275",2.12326816382098,"const",1.54436849275034,"P+Q"
"276",2.12024739960454,"const",1.54813016095906,"P+Q"
"277",2.11716091671929,"const",1.55187681466512,"P+Q"
"278",2.11415354650416,"const",1.5557191778971,"P+Q"
"279",2.11116293673253,"const",1.55943241424053,"P+Q"
"280",2.10809550358897,"const",1.56333429390396,"P+Q"
"281",2.1051179322681,"const",1.5671275833824,"P+Q"
"282",2.10214240885814,"const",1.57102173680227,"P+Q"
"283",2.09910119549998,"const",1.57496128536818,"P+Q"
"284",2.09614568115708,"const",1.57881960474694,"P+Q"
"285",2.09319896774017,"const",1.58266408607173,"P+Q"
"286",2.09025445554961,"const",1.58660839541429,"P+Q"
"287",2.08724306916718,"const",1.5906755858987,"P+Q"
"288",2.08431791918101,"const",1.59458359159867,"P+Q"
"289",2.08139512189823,"const",1.59859053406031,"P+Q"
"290",2.07840890259968,"const",1.60269138853863,"P+Q"
"291",2.07549909313789,"const",1.60677398152014,"P+Q"
"292",2.07260359811223,"const",1.61072989469105,"P+Q"
"293",2.06971057192579,"const",1.61478373991014,"P+Q"
"294",2.06675341080295,"const",1.61900575785277,"P+Q"
"295",2.06387315371815,"const",1.62313391996927,"P+Q"
"296",2.06100108838105,"const",1.62724748167386,"P+Q"
"297",2.05806810490278,"const",1.63149896841615,"P+Q"
"298",2.05520865385967,"const",1.63568575824729,"P+Q"
"299",2.05235720815007,"const",1.63985778681616,"P+Q"
"300",2.04950860721703,"const",1.64412554523531,"P+Q"
"301",2.04660388196242,"const",1.64849160751243,"P+Q"
"302",2.04377279491451,"const",1.65272069089625,"P+Q"
"303",2.04094463702697,"const",1.6570446675224,"P+Q"
"304",2.03812425087887,"const",1.66135348898319,"P+Q"
"305",2.03525196678151,"const",1.6657210685421,"P+Q"
"306",2.03244389053108,"const",1.67010006050619,"P+Q"
"307",2.02964340521499,"const",1.67446374545739,"P+Q"
"308",2.02684602310847,"const",1.67892091357234,"P+Q"
"309",2.02399648654697,"const",1.68350479107538,"P+Q"
"310",2.02121569005868,"const",1.68792180569973,"P+Q"
"311",2.0184380520521,"const",1.69243149468177,"P+Q"
"312",2.01565959981985,"const",1.69714129418985,"P+Q"
"313",2.01284918331545,"const",1.7015048502457,"P+Q"
"314",2.0100909161033,"const",1.70606590401957,"P+Q"
"315",2.00733983296768,"const",1.71061113164934,"P+Q"
"316",2.00459203285917,"const",1.71524766984175,"P+Q"
"317",2.00179957840779,"const",1.71992729010864,"P+Q"
"318",1.99906372220074,"const",1.72462903145079,"P+Q"
"319",1.99633491303862,"const",1.7293145273116,"P+Q"
"320",1.99361306109906,"const",1.73398383694381,"P+Q"
"321",1.99084627933734,"const",1.73875986490616,"P+Q"
"322",1.9881326684508,"const",1.7435990033906,"P+Q"
"323",1.98542932469987,"const",1.74831585146113,"P+Q"
"324",1.98272938162395,"const",1.75312190487213,"P+Q"
"325",1.97998454451836,"const",1.75809571139453,"P+Q"
"326",1.97729621203472,"const",1.76296384123256,"P+Q"
"327",1.97461453309882,"const",1.76781524349862,"P+Q"
"328",1.97193634694391,"const",1.77275465899987,"P+Q"
"329",1.96921948389532,"const",1.77771185907378,"P+Q"
"330",1.96655273045664,"const",1.78271175854505,"P+Q"
"331",1.963892491282,"const",1.78769453439266,"P+Q"
"332",1.96123868736397,"const",1.79266024429014,"P+Q"
"333",1.95858842111131,"const",1.797712691709,"P+Q"
"334",1.95589777908671,"const",1.80293460373994,"P+Q"
"335",1.95326149019119,"const",1.80794216692165,"P+Q"
"336",1.95062606441037,"const",1.81313887147756,"P+Q"
"337",1.94799957715834,"const",1.81821488200867,"P+Q"
"338",1.94537407356711,"const",1.82347920066023,"P+Q"
"339",1.942714723818,"const",1.8287518231564,"P+Q"
"340",1.94010282882223,"const",1.83396985587497,"P+Q"
"341",1.93749457344785,"const",1.83927233764679,"P+Q"
"342",1.93489241505419,"const",1.84455678815881,"P+Q"
"343",1.93225618019234,"const",1.84990418467064,"P+Q"
"344",1.92966484204639,"const",1.85524366045793,"P+Q"
"345",1.9270771753896,"const",1.86066646597053,"P+Q"
"346",1.92449546634033,"const",1.86607087044324,"P+Q"
"347",1.92191964677161,"const",1.87145693017109,"P+Q"
"348",1.91930860131852,"const",1.87704792898,"P+Q"
"349",1.9167433916853,"const",1.88248704252006,"P+Q"
"350",1.91418184463865,"const",1.88800828636089,"P+Q"
"351",1.91162400167178,"const",1.89361126297966,"P+Q"
"352",1.90907191740338,"const",1.89919528552846,"P+Q"
"353",1.90652552753808,"const",1.90476040978743,"P+Q"
"354",1.90394623617768,"const",1.91055577912554,"P+Q"
"355",1.90141023471992,"const",1.91617142479695,"P+Q"
"356",1.89887791458751,"const",1.92186762746042,"P+Q"
"357",1.89634931059041,"const",1.92764399720377,"P+Q"
"358",1.89382626877802,"const",1.9334008728099,"P+Q"
"359",1.89127506361232,"const",1.93922365154018,"P+Q"
"360",1.88876221644522,"const",1.9450288753045,"P+Q"
"361",1.88625308087692,"const",1.95091320367558,"P+Q"
"362",1.88374937364828,"const",1.95677769063655,"P+Q"
"363",1.88124937799169,"const",1.9627208077822,"P+Q"
"364",1.8787547523443,"const",1.96864390163842,"P+Q"
"365",1.87623208359207,"const",1.97475150865802,"P+Q"
"366",1.87374743146441,"const",1.98072036072371,"P+Q"
"367",1.87126647693725,"const",1.98676679884224,"P+Q"
"368",1.86878924437689,"const",1.99289044616993,"P+Q"
"369",1.86631724852797,"const",1.99899349750465,"P+Q"
"370",1.86384896869136,"const",2.00517329403845,"P+Q"
"371",1.86135732463915,"const",2.01135890792723,"P+Q"
"372",1.85889881373786,"const",2.01758165427448,"P+Q"
"373",1.85644402288466,"const",2.02388021049954,"P+Q"
"374",1.85399433528707,"const",2.03015760816552,"P+Q"
"375",1.85154969917378,"const",2.03641390071358,"P+Q"
"376",1.84910874565312,"const",2.04274545890561,"P+Q"
"377",1.84664441946267,"const",2.04919303026353,"P+Q"
"378",1.84421171956814,"const",2.0556609567681,"P+Q"
"379",1.84178399047075,"const",2.06210717103779,"P+Q"
"380",1.83936118287798,"const",2.06853172595153,"P+Q"
"381",1.83694204327607,"const",2.07503017528485,"P+Q"
"382",1.8345265860977,"const",2.08160215673133,"P+Q"
"383",1.83211482486606,"const",2.0882473091278,"P+Q"
"384",1.82968295073706,"const",2.09490848035774,"P+Q"
"385",1.82728050157589,"const",2.101590544983,"P+Q"
"386",1.82488283784912,"const",2.10825018277485,"P+Q"
"387",1.82248883088122,"const",2.11498200460252,"P+Q"
"388",1.82009955588019,"const",2.12169123079814,"P+Q"
"389",1.81771392188186,"const",2.12847220057232,"P+Q"
"390",1.81533193881694,"const",2.13532455911356,"P+Q"
"391",1.81293048852694,"const",2.14227861413031,"P+Q"
"392",1.81055754832951,"const",2.14916480051493,"P+Q"
"393",1.80818824157243,"const",2.15612148739125,"P+Q"
"394",1.8058225759496,"const",2.16314832384715,"P+Q"
"395",1.80346149803012,"const",2.17015159731601,"P+Q"
"396",1.80110404212954,"const",2.1772245884825,"P+Q"
"397",1.79875112222124,"const",2.18427385227952,"P+Q"
"398",1.79640180508682,"const",2.19139240338305,"P+Q"
"399",1.79403433132614,"const",2.19867605540389,"P+Q"
"400",1.79169376976435,"const",2.2058247395803,"P+Q"
"401",1.78935594455356,"const",2.21313428909401,"P+Q"
"402",1.78702256211136,"const",2.22041932676378,"P+Q"
"403",1.78469358285727,"const",2.22767990304924,"P+Q"
"404",1.78236736644341,"const",2.23510018276136,"P+Q"
"405",1.78004553182612,"const",2.24249557805861,"P+Q"
"406",1.77772804056839,"const",2.24986613902613,"P+Q"
"407",1.77541333482405,"const",2.25739524898806,"P+Q"
"408",1.77308376285034,"const",2.26494509822053,"P+Q"
"409",1.77077753118299,"const",2.27249968610686,"P+Q"
"410",1.76847484302921,"const",2.28012004155321,"P+Q"
"411",1.76617640570786,"const",2.28771479328364,"P+Q"
"412",1.76388079512943,"const",2.29546580159628,"P+Q"
"413",1.7615894121127,"const",2.30319079091875,"P+Q"
"414",1.75930222092871,"const",2.3108898105895,"P+Q"
"415",1.75701786947086,"const",2.3187439527675,"P+Q"
"416",1.75473768635789,"const",2.32657171221734,"P+Q"
"417",1.75244323321332,"const",2.33454140920001,"P+Q"
"418",1.75017121437114,"const",2.34239032046038,"P+Q"
"419",1.7479020502404,"const",2.3503925566966,"P+Q"
"420",1.74563697394461,"const",2.35836786238506,"P+Q"
"421",1.74337477098344,"const",2.36649557867012,"P+Q"
"422",1.74111663125019,"const",2.37459595686206,"P+Q"
"423",1.73886252190961,"const",2.38266904528626,"P+Q"
"424",1.73661129013759,"const",2.39089343101924,"P+Q"
"425",1.73436406423001,"const",2.39909012119144,"P+Q"
"426",1.73212027142479,"const",2.40734818330517,"P+Q"
"427",1.72987990892514,"const",2.41566729055823,"P+Q"
"428",1.72764297364673,"const",2.4240471168607,"P+Q"
"429",1.72539424351735,"const",2.43253464970893,"P+Q"
"430",1.72316512276322,"const",2.4409290131965,"P+Q"
"431",1.72093889986727,"const",2.44947155985751,"P+Q"
"432",1.71871656677691,"const",2.45798527129913,"P+Q"
"433",1.71649761731384,"const",2.4665582335265,"P+Q"
"434",1.71428204731891,"const",2.47519012404178,"P+Q"
"435",1.71206985240498,"const",2.48388062099186,"P+Q"
"436",1.70986147976393,"const",2.4925417323483,"P+Q"
"437",1.70765601303562,"const",2.50134860152113,"P+Q"
"438",1.70545434316211,"const",2.51012568875645,"P+Q"
"439",1.70325601350706,"const",2.51896034492507,"P+Q"
"440",1.70106059810143,"const",2.527939433582,"P+Q"
"441",1.69886894099754,"const",2.53688814871984,"P+Q"
"442",1.69668101462384,"const",2.54580653656903,"P+Q"
"443",1.69448296337207,"const",2.55491679523962,"P+Q"
"444",1.6923016405857,"const",2.56401554835902,"P+Q"
"445",1.69012361821398,"const",2.57316986951844,"P+Q"
"446",1.68794889026787,"const",2.58237944284921,"P+Q"
"447",1.68577745061495,"const",2.59164395301688,"P+Q"
"448",1.68360965674787,"const",2.60087697983197,"P+Q"
"449",1.68144476830745,"const",2.6102505395926,"P+Q"
"450",1.67928350011452,"const",2.61959222709044,"P+Q"
"451",1.67712513722378,"const",2.62907358055592,"P+Q"
"452",1.67497036898573,"const",2.63852267411309,"P+Q"
"453",1.67281883780527,"const",2.6480250609292,"P+Q"
"454",1.67067021012729,"const",2.65766581824913,"P+Q"
"455",1.66852513874714,"const",2.66727373627457,"P+Q"
"456",1.66638328403818,"const",2.67693401197382,"P+Q"
"457",1.66424432922074,"const",2.68673136853305,"P+Q"
"458",1.66210889239618,"const",2.69649530890392,"P+Q"
"459",1.65997665103855,"const",2.70631067540862,"P+Q"
"460",1.65784759795154,"const",2.71617715833535,"P+Q"
"461",1.65572143744346,"const",2.72617901120003,"P+Q"
"462",1.65359874413642,"const",2.73614668211154,"P+Q"
"463",1.65146868063854,"const",2.74623037740747,"P+Q"
"464",1.64935231532206,"const",2.75636091947455,"P+Q"
"465",1.64723910443466,"const",2.76654070984496,"P+Q"
"466",1.64512930281131,"const",2.77668557392496,"P+Q"
"467",1.64302237272546,"const",2.7869630573392,"P+Q"
"468",1.64091857369521,"const",2.79728886953967,"P+Q"
"469",1.63881789782233,"const",2.80766270478445,"P+Q"
"470",1.63672033717509,"const",2.81808425767204,"P+Q"
"471",1.63462588379147,"const",2.82855322313392,"P+Q"
"472",1.63253452968225,"const",2.83906929642716,"P+Q"
"473",1.63044603531965,"const",2.84971522891634,"P+Q"
"474",1.62836085982908,"const",2.86032448957209,"P+Q"
"475",1.62627853613408,"const",2.87106277107085,"P+Q"
"476",1.6241995067569,"const",2.88176400449145,"P+Q"
"477",1.62212332087201,"const",2.89259342223423,"P+Q"
"478",1.62005019347717,"const",2.90346789664112,"P+Q"
"479",1.61798011626319,"const",2.91438712552286,"P+Q"
"480",1.61591308091916,"const",2.9253508069552,"P+Q"
"481",1.61384887880261,"const",2.93644077633121,"P+Q"
"482",1.61178790585781,"const",2.94749234398274,"P+Q"
"483",1.60972975659279,"const",2.95866936896272,"P+Q"
"484",1.60767462284743,"const",2.96988941374695,"P+Q"
"485",1.60562249614208,"const",2.98115217809802,"P+Q"
"486",1.60357318506297,"const",2.99253892958007,"P+Q"
"487",1.60152705034296,"const",3.00388611979824,"P+Q"
"488",1.59948372083418,"const",3.01535647112326,"P+Q"
"489",1.59744337088971,"const",3.0268681170398,"P+Q"
"490",1.5954059919384,"const",3.03842075880531,"P+Q"
"491",1.59337140839925,"const",3.050095099451,"P+Q"
"492",1.59133978481558,"const",3.06180961345236,"P+Q"
"493",1.58931111252511,"const",3.07356400305207,"P+Q"
"494",1.58728538289775,"const",3.08535797065868,"P+Q"
"495",1.58526243206474,"const",3.0972717699993,"P+Q"
"496",1.58324256480631,"const",3.10914388925212,"P+Q"
"497",1.58122531506037,"const",3.12121534833345,"P+Q"
"498",1.57921113155218,"const",3.13324453407301,"P+Q"
"499",1.57719970889352,"const",3.14539169173296,"P+Q"
"500",1.57519118805993,"const",3.15757619871578,"P+Q"
"501",1.57318542125055,"const",3.16987763862659,"P+Q"
"502",1.57118268059673,"const",3.18213584562799,"P+Q"
"503",1.56918254758699,"const",3.19458982803634,"P+Q"
"504",1.56718542331451,"const",3.2069999874166,"P+Q"
"505",1.56519103327175,"const",3.21952523061271,"P+Q"
"506",1.56319950284347,"const",3.23208560681045,"P+Q"
"507",1.5612106987452,"const",3.24476003361567,"P+Q"
"508",1.5592247414993,"const",3.25746878323332,"P+Q"
"509",1.55724150230284,"const",3.2702905522508,"P+Q"
"510",1.5552612148991,"const",3.28306695565887,"P+Q"
"511",1.55328351684381,"const",3.29603433947043,"P+Q"
"512",1.55130863956369,"const",3.30903443009577,"P+Q"
"513",1.54933657433279,"const",3.32206693476666,"P+Q"
"514",1.54736720296538,"const",3.33520999920432,"P+Q"
"515",1.54540063037651,"const",3.34838467221514,"P+Q"
"516",1.54343684790361,"const",3.36159066152307,"P+Q"
"517",1.54147574332771,"const",3.37490578351323,"P+Q"
"518",1.53951731379692,"const",3.38832941681541,"P+Q"
"519",1.53756720209829,"const",3.40176043327883,"P+Q"
"520",1.53561430265298,"const",3.41527368445866,"P+Q"
"521",1.53366406670129,"const",3.42889421986014,"P+Q"
"522",1.53171658585887,"const",3.4425437534622,"P+Q"
"523",1.52977175844635,"const",3.45629955155476,"P+Q"
"524",1.52782958107978,"const",3.47016099562036,"P+Q"
"525",1.52589013995039,"const",3.48405012877039,"P+Q"
"526",1.52395333843078,"const",3.4980438906695,"P+Q"
"527",1.52201925929203,"const",3.51206454322485,"P+Q"
"528",1.52008780916439,"const",3.52618880870656,"P+Q"
"529",1.5181590675278,"const",3.54033916738779,"P+Q"
"530",1.51623294415795,"const",3.55459212451495,"P+Q"
"531",1.51430943514929,"const",3.56894706479724,"P+Q"
"532",1.51238861523273,"const",3.58332679542526,"P+Q"
"533",1.51047039866357,"const",3.59780749690809,"P+Q"
"534",1.50855478133115,"const",3.61238855528612,"P+Q"
"535",1.50664183348021,"const",3.62699310377152,"P+Q"
"536",1.50473147362322,"const",3.64169699889482,"P+Q"
"537",1.50282369746725,"const",3.65649962795529,"P+Q"
"538",1.50091850064023,"const",3.67140037873607,"P+Q"
"539",1.49901594776516,"const",3.68632281788489,"P+Q"
"540",1.49712034958885,"const",3.70128611091659,"P+Q"
"541",1.49522307991269,"const",3.71636069727579,"P+Q"
"542",1.49332837137099,"const",3.73153158512581,"P+Q"
"543",1.49143621935814,"const",3.74679816401855,"P+Q"
"544",1.489546619204,"const",3.7621598239445,"P+Q"
"545",1.48765962815605,"const",3.77754067425633,"P+Q"
"546",1.4857751163064,"const",3.79309077521267,"P+Q"
"547",1.48389320165268,"const",3.80865906303615,"P+Q"
"548",1.48201381737245,"const",3.82432021022852,"P+Q"
"549",1.48013701605434,"const",3.83999875612066,"P+Q"
"550",1.47826267670675,"const",3.85584390489193,"P+Q"
"551",1.4763909082703,"const",3.87170545092636,"P+Q"
"552",1.47452159394897,"const",3.88773217139733,"P+Q"
"553",1.47265483837489,"const",3.90377428890005,"P+Q"
"554",1.47079058111444,"const",3.91990583561775,"P+Q"
"555",1.46893254409819,"const",3.93614100754404,"P+Q"
"556",1.46707346857648,"const",3.95241286405742,"P+Q"
"557",1.46521682924616,"const",3.96884684137933,"P+Q"
"558",1.46336267241866,"const",3.98536801831192,"P+Q"
"559",1.46151104061066,"const",4.00190189969133,"P+Q"
"560",1.45966183203338,"const",4.01859576791962,"P+Q"
"561",1.45781513606865,"const",4.03530134422307,"P+Q"
"562",1.45597085445589,"const",4.05216548664889,"P+Q"
"563",1.45412907299509,"const",4.06904034171566,"P+Q"
"564",1.4522896968302,"const",4.08607234365212,"P+Q"
"565",1.45045276566443,"const",4.10318731760828,"P+Q"
"566",1.44861831587216,"const",4.12031151273914,"P+Q"
"567",1.44678954583579,"const",4.13761358899383,"P+Q"
"568",1.44496015622838,"const",4.15494136527666,"P+Q"
"569",1.44313315326513,"const",4.17242304247468,"P+Q"
"570",1.44130861156467,"const",4.18991204407048,"P+Q"
"571",1.43948644692542,"const",4.20755353195006,"P+Q"
"572",1.43766669344811,"const",4.22527397038495,"P+Q"
"573",1.43584930874655,"const",4.24314527086034,"P+Q"
"574",1.43403436144975,"const",4.2610217023264,"P+Q"
"575",1.43222177303762,"const",4.27904758395582,"P+Q"
"576",1.43041157460255,"const",4.29714980314227,"P+Q"
"577",1.42860666740804,"const",4.31524227497726,"P+Q"
"578",1.42680147164196,"const",4.33353857709658,"P+Q"
"579",1.42499865360668,"const",4.35190960966829,"P+Q"
"580",1.42319817526399,"const",4.37042665278905,"P+Q"
"581",1.42140009610889,"const",4.38894524353328,"P+Q"
"582",1.41960434637198,"const",4.40760843692953,"P+Q"
"583",1.41781092207861,"const",4.42641531965245,"P+Q"
"584",1.41601987902643,"const",4.44522205909814,"P+Q"
"585",1.41423112162925,"const",4.46424243685395,"P+Q"
"586",1.41244473382619,"const",4.48326147529766,"P+Q"
"587",1.41066344786589,"const",4.50240391532258,"P+Q"
"588",1.40888200408639,"const",4.52160716135099,"P+Q"
"589",1.40710286004519,"const",4.54094996658358,"P+Q"
"590",1.40532601146957,"const",4.56043142020794,"P+Q"
"591",1.40355148029471,"const",4.57997978119947,"P+Q"
"592",1.40177923486556,"const",4.59966517908818,"P+Q"
"593",1.40000929604056,"const",4.61941608230905,"P+Q"
"594",1.3982416579049,"const",4.63923189451739,"P+Q"
"595",1.39647870269869,"const",4.65916814599087,"P+Q"
"596",1.3947159386877,"const",4.67923053055395,"P+Q"
"597",1.3929554634149,"const",4.69935601914475,"P+Q"
"598",1.39119722486019,"const",4.71968442321356,"P+Q"
"599",1.38944128755843,"const",4.74000422416719,"P+Q"
"600",1.38768757773161,"const",4.76052512531606,"P+Q"
"601",1.3859361354815,"const",4.78110612447207,"P+Q"
"602",1.38418695482741,"const",4.80174662669868,"P+Q"
"603",1.38244225322061,"const",4.82252666091957,"P+Q"
"604",1.38069788362025,"const",4.84347435056341,"P+Q"
"605",1.37895576417058,"const",4.86447953527551,"P+Q"
"606",1.37721586905206,"const",4.88561109548996,"P+Q"
"607",1.37547821285777,"const",4.90679875474404,"P+Q"
"608",1.37374277052047,"const",4.92811118632589,"P+Q"
"609",1.37200951845186,"const",4.94961664905894,"P+Q"
"610",1.37028042914022,"const",4.97111285564085,"P+Q"
"611",1.36855199139259,"const",4.99277840356394,"P+Q"
"612",1.36682575186945,"const",5.01456560661185,"P+Q"
"613",1.36510170557853,"const",5.03647356093472,"P+Q"
"614",1.36337984749942,"const",5.05850136296964,"P+Q"
"615",1.36166018929125,"const",5.08057946441266,"P+Q"
"616",1.35994269214321,"const",5.10284435565648,"P+Q"
"617",1.35822914429048,"const",5.12517808724473,"P+Q"
"618",1.35651642208551,"const",5.14759534437798,"P+Q"
"619",1.35480585071898,"const",5.1701969756376,"P+Q"
"620",1.35309744118059,"const",5.19291353844083,"P+Q"
"621",1.35139120322224,"const",5.21567600340808,"P+Q"
"622",1.34968710151321,"const",5.23861982709793,"P+Q"
"623",1.34798514605895,"const",5.26167587741826,"P+Q"
"624",1.34628710962967,"const",5.2848289526182,"P+Q"
"625",1.34458987591138,"const",5.30809727390794,"P+Q"
"626",1.3428947770418,"const",5.33147561806843,"P+Q"
"627",1.3412017944236,"const",5.35503069562905,"P+Q"
"628",1.33951093661485,"const",5.37869378913232,"P+Q"
"629",1.33782219829607,"const",5.40246399846239,"P+Q"
"630",1.33613557413195,"const",5.42634042369467,"P+Q"
"631",1.33445301843874,"const",5.45029469547293,"P+Q"
"632",1.33277106629492,"const",5.47444186659041,"P+Q"
"16838",1.3,"const",0.997518579825897,"Pinsker"
"16839",1.31,"const",0.997518579825897,"Pinsker"
"16840",1.32,"const",0.997518579825897,"Pinsker"
"16841",1.33,"const",0.997518579825897,"Pinsker"
"16842",1.34,"const",0.997518579825897,"Pinsker"
"16843",1.35,"const",0.997518579825897,"Pinsker"
"16844",1.36,"const",0.997518579825897,"Pinsker"
"16845",1.37,"const",0.997518579825897,"Pinsker"
"16846",1.38,"const",0.997518579825897,"Pinsker"
"16847",1.39,"const",0.997518579825897,"Pinsker"
"16848",1.4,"const",0.997518579825897,"Pinsker"
"16849",1.41,"const",0.997518579825897,"Pinsker"
"16850",1.42,"const",0.997518579825897,"Pinsker"
"16851",1.43,"const",0.997518579825897,"Pinsker"
"16852",1.44,"const",0.997518579825897,"Pinsker"
"16853",1.45,"const",0.997518579825897,"Pinsker"
"16854",1.46,"const",0.997518579825897,"Pinsker"
"16855",1.47,"const",0.997518579825897,"Pinsker"
"16856",1.48,"const",0.997518579825897,"Pinsker"
"16857",1.49,"const",0.997518579825897,"Pinsker"
"16858",1.5,"const",0.997518579825897,"Pinsker"
"16859",1.51,"const",0.997518579825897,"Pinsker"
"16860",1.52,"const",0.997518579825897,"Pinsker"
"16861",1.53,"const",0.997518579825897,"Pinsker"
"16862",1.54,"const",0.997518579825897,"Pinsker"
"16863",1.55,"const",0.997518579825897,"Pinsker"
"16864",1.56,"const",0.997518579825897,"Pinsker"
"16865",1.57,"const",0.997518579825897,"Pinsker"
"16866",1.58,"const",0.997518579825897,"Pinsker"
"16867",1.59,"const",0.997518579825897,"Pinsker"
"16868",1.6,"const",0.997518579825897,"Pinsker"
"16869",1.61,"const",0.997518579825897,"Pinsker"
"16870",1.62,"const",0.997518579825897,"Pinsker"
"16871",1.63,"const",0.997518579825897,"Pinsker"
"16872",1.64,"const",0.997518579825897,"Pinsker"
"16873",1.65,"const",0.997518579825897,"Pinsker"
"16874",1.66,"const",0.997518579825897,"Pinsker"
"16875",1.67,"const",0.997518579825897,"Pinsker"
"16876",1.68,"const",0.997518579825897,"Pinsker"
"16877",1.69,"const",0.997518579825897,"Pinsker"
"16878",1.7,"const",0.997518579825897,"Pinsker"
"16879",1.71,"const",0.997518579825897,"Pinsker"
"16880",1.72,"const",0.997518579825897,"Pinsker"
"16881",1.73,"const",0.997518579825897,"Pinsker"
"16882",1.74,"const",0.997518579825897,"Pinsker"
"16883",1.75,"const",0.997518579825897,"Pinsker"
"16884",1.76,"const",0.997518579825897,"Pinsker"
"16885",1.77,"const",0.997518579825897,"Pinsker"
"16886",1.78,"const",0.997518579825897,"Pinsker"
"16887",1.79,"const",0.997518579825897,"Pinsker"
"16888",1.8,"const",0.997518579825897,"Pinsker"
"16889",1.81,"const",0.997518579825897,"Pinsker"
"16890",1.82,"const",0.997518579825897,"Pinsker"
"16891",1.83,"const",0.997518579825897,"Pinsker"
"16892",1.84,"const",0.997518579825897,"Pinsker"
"16893",1.85,"const",0.997518579825897,"Pinsker"
"16894",1.86,"const",0.997518579825897,"Pinsker"
"16895",1.87,"const",0.997518579825897,"Pinsker"
"16896",1.88,"const",0.997518579825897,"Pinsker"
"16897",1.89,"const",0.997518579825897,"Pinsker"
"16898",1.9,"const",0.997518579825897,"Pinsker"
"16899",1.91,"const",0.997518579825897,"Pinsker"
"16900",1.92,"const",0.997518579825897,"Pinsker"
"16901",1.93,"const",0.997518579825897,"Pinsker"
"16902",1.94,"const",0.997518579825897,"Pinsker"
"16903",1.95,"const",0.997518579825897,"Pinsker"
"16904",1.96,"const",0.997518579825897,"Pinsker"
"16905",1.97,"const",0.997518579825897,"Pinsker"
"16906",1.98,"const",0.997518579825897,"Pinsker"
"16907",1.99,"const",0.997518579825897,"Pinsker"
"16908",2,"const",0.997518579825897,"Pinsker"
"16909",2.01,"const",0.997518579825897,"Pinsker"
"16910",2.02,"const",0.997518579825897,"Pinsker"
"16911",2.03,"const",0.997518579825897,"Pinsker"
"16912",2.04,"const",0.997518579825897,"Pinsker"
"16913",2.05,"const",0.997518579825897,"Pinsker"
"16914",2.06,"const",0.997518579825897,"Pinsker"
"16915",2.07,"const",0.997518579825897,"Pinsker"
"16916",2.08,"const",0.997518579825897,"Pinsker"
"16917",2.09,"const",0.997518579825897,"Pinsker"
"16918",2.1,"const",0.997518579825897,"Pinsker"
"16919",2.11,"const",0.997518579825897,"Pinsker"
"16920",2.12,"const",0.997518579825897,"Pinsker"
"16921",2.13,"const",0.997518579825897,"Pinsker"
"16922",2.14,"const",0.997518579825897,"Pinsker"
"16923",2.15,"const",0.997518579825897,"Pinsker"
"16924",2.16,"const",0.997518579825897,"Pinsker"
"16925",2.17,"const",0.997518579825897,"Pinsker"
"16926",2.18,"const",0.997518579825897,"Pinsker"
"16927",2.19,"const",0.997518579825897,"Pinsker"
"16928",2.2,"const",0.997518579825897,"Pinsker"
"16929",2.21,"const",0.997518579825897,"Pinsker"
"16930",2.22,"const",0.997518579825897,"Pinsker"
"16931",2.23,"const",0.997518579825897,"Pinsker"
"16932",2.24,"const",0.997518579825897,"Pinsker"
"16933",2.25,"const",0.997518579825897,"Pinsker"
"16934",2.26,"const",0.997518579825897,"Pinsker"
"16935",2.27,"const",0.997518579825897,"Pinsker"
"16936",2.28,"const",0.997518579825897,"Pinsker"
"16937",2.29,"const",0.997518579825897,"Pinsker"
"16938",2.3,"const",0.997518579825897,"Pinsker"
"16939",2.31,"const",0.997518579825897,"Pinsker"
"16940",2.32,"const",0.997518579825897,"Pinsker"
"16941",2.33,"const",0.997518579825897,"Pinsker"
"16942",2.34,"const",0.997518579825897,"Pinsker"
"16943",2.35,"const",0.997518579825897,"Pinsker"
"16944",2.36,"const",0.997518579825897,"Pinsker"
"16945",2.37,"const",0.997518579825897,"Pinsker"
"16946",2.38,"const",0.997518579825897,"Pinsker"
"16947",2.39,"const",0.997518579825897,"Pinsker"
"16948",2.4,"const",0.997518579825897,"Pinsker"
"16949",2.41,"const",0.997518579825897,"Pinsker"
"16950",2.42,"const",0.997518579825897,"Pinsker"
"16951",2.43,"const",0.997518579825897,"Pinsker"
"16952",2.44,"const",0.997518579825897,"Pinsker"
"16953",2.45,"const",0.997518579825897,"Pinsker"
"16954",2.46,"const",0.997518579825897,"Pinsker"
"16955",2.47,"const",0.997518579825897,"Pinsker"
"16956",2.48,"const",0.997518579825897,"Pinsker"
"16957",2.49,"const",0.997518579825897,"Pinsker"
"16958",2.5,"const",0.997518579825897,"Pinsker"
"16959",2.51,"const",0.997518579825897,"Pinsker"
"16960",2.52,"const",0.997518579825897,"Pinsker"
"16961",2.53,"const",0.997518579825897,"Pinsker"
"16962",2.54,"const",0.997518579825897,"Pinsker"
"16963",2.55,"const",0.997518579825897,"Pinsker"
"16964",2.56,"const",0.997518579825897,"Pinsker"
"16965",2.57,"const",0.997518579825897,"Pinsker"
"16966",2.58,"const",0.997518579825897,"Pinsker"
"16967",2.59,"const",0.997518579825897,"Pinsker"
"16968",2.6,"const",0.997518579825897,"Pinsker"
"16969",2.61,"const",0.997518579825897,"Pinsker"
"16970",2.62,"const",0.997518579825897,"Pinsker"
"16971",2.63,"const",0.997518579825897,"Pinsker"
"16972",2.64,"const",0.997518579825897,"Pinsker"
"16973",2.65,"const",0.997518579825897,"Pinsker"
"16974",2.66,"const",0.997518579825897,"Pinsker"
"16975",2.67,"const",0.997518579825897,"Pinsker"
"16976",2.68,"const",0.997518579825897,"Pinsker"
"16977",2.69,"const",0.997518579825897,"Pinsker"
"16978",2.7,"const",0.997518579825897,"Pinsker"
"16979",2.71,"const",0.997518579825897,"Pinsker"
"16980",2.72,"const",0.997518579825897,"Pinsker"
"16981",2.73,"const",0.997518579825897,"Pinsker"
"16982",2.74,"const",0.997518579825897,"Pinsker"
"16983",2.75,"const",0.997518579825897,"Pinsker"
"16984",2.76,"const",0.997518579825897,"Pinsker"
"16985",2.77,"const",0.997518579825897,"Pinsker"
"16986",2.78,"const",0.997518579825897,"Pinsker"
"16987",2.79,"const",0.997518579825897,"Pinsker"
"16988",2.8,"const",0.997518579825897,"Pinsker"
"16989",2.81,"const",0.997518579825897,"Pinsker"
"16990",2.82,"const",0.997518579825897,"Pinsker"
"16991",2.83,"const",0.997518579825897,"Pinsker"
"16992",2.84,"const",0.997518579825897,"Pinsker"
"16993",2.85,"const",0.997518579825897,"Pinsker"
"16994",2.86,"const",0.997518579825897,"Pinsker"
"16995",2.87,"const",0.997518579825897,"Pinsker"
"16996",2.88,"const",0.997518579825897,"Pinsker"
"16997",2.89,"const",0.997518579825897,"Pinsker"
"16998",2.9,"const",0.997518579825897,"Pinsker"
"16999",2.91,"const",0.997518579825897,"Pinsker"
"17000",2.92,"const",0.997518579825897,"Pinsker"
"17001",2.93,"const",0.997518579825897,"Pinsker"
"17002",2.94,"const",0.997518579825897,"Pinsker"
"17003",2.95,"const",0.997518579825897,"Pinsker"
"17004",2.96,"const",0.997518579825897,"Pinsker"
"17005",2.97,"const",0.997518579825897,"Pinsker"
"17006",2.98,"const",0.997518579825897,"Pinsker"
"17007",2.99,"const",0.997518579825897,"Pinsker"
"17008",3,"const",0.997518579825897,"Pinsker"
"17009",3.01,"const",0.997518579825897,"Pinsker"
"17010",3.02,"const",0.997518579825897,"Pinsker"
"17011",3.03,"const",0.997518579825897,"Pinsker"
"17012",3.04,"const",0.997518579825897,"Pinsker"
"17013",3.05,"const",0.997518579825897,"Pinsker"
"17014",3.06,"const",0.997518579825897,"Pinsker"
"17015",3.07,"const",0.997518579825897,"Pinsker"
"17016",3.08,"const",0.997518579825897,"Pinsker"
"17017",3.09,"const",0.997518579825897,"Pinsker"
"17018",3.1,"const",0.997518579825897,"Pinsker"
"17019",3.11,"const",0.997518579825897,"Pinsker"
"17020",3.12,"const",0.997518579825897,"Pinsker"
"17021",3.13,"const",0.997518579825897,"Pinsker"
"17022",3.14,"const",0.997518579825897,"Pinsker"
"17023",3.15,"const",0.997518579825897,"Pinsker"
"17024",3.16,"const",0.997518579825897,"Pinsker"
"17025",3.17,"const",0.997518579825897,"Pinsker"
"17026",3.18,"const",0.997518579825897,"Pinsker"
"17027",3.19,"const",0.997518579825897,"Pinsker"
"17028",3.2,"const",0.997518579825897,"Pinsker"
"17029",3.21,"const",0.997518579825897,"Pinsker"
"17030",3.22,"const",0.997518579825897,"Pinsker"
"17031",3.23,"const",0.997518579825897,"Pinsker"
"17032",3.24,"const",0.997518579825897,"Pinsker"
"17033",3.25,"const",0.997518579825897,"Pinsker"
"17034",3.26,"const",0.997518579825897,"Pinsker"
"17035",3.27,"const",0.997518579825897,"Pinsker"
"17036",3.28,"const",0.997518579825897,"Pinsker"
"17037",3.29,"const",0.997518579825897,"Pinsker"
"17038",3.3,"const",0.997518579825897,"Pinsker"
"17039",3.31,"const",0.997518579825897,"Pinsker"
"17040",3.32,"const",0.997518579825897,"Pinsker"
"17041",3.33,"const",0.997518579825897,"Pinsker"
"17042",3.34,"const",0.997518579825897,"Pinsker"
"17043",3.35,"const",0.997518579825897,"Pinsker"
"17044",3.36,"const",0.997518579825897,"Pinsker"
"17045",3.37,"const",0.997518579825897,"Pinsker"
"17046",3.38,"const",0.997518579825897,"Pinsker"
"17047",3.39,"const",0.997518579825897,"Pinsker"
"17048",3.4,"const",0.997518579825897,"Pinsker"
"17049",3.41,"const",0.997518579825897,"Pinsker"
"17050",3.42,"const",0.997518579825897,"Pinsker"
"17051",3.43,"const",0.997518579825897,"Pinsker"
"17052",3.44,"const",0.997518579825897,"Pinsker"
"17053",3.45,"const",0.997518579825897,"Pinsker"
"17054",3.46,"const",0.997518579825897,"Pinsker"
"17055",3.47,"const",0.997518579825897,"Pinsker"
"17056",3.48,"const",0.997518579825897,"Pinsker"
"17057",3.49,"const",0.997518579825897,"Pinsker"
"17058",3.5,"const",0.997518579825897,"Pinsker"
"17059",3.51,"const",0.997518579825897,"Pinsker"
"17060",3.52,"const",0.997518579825897,"Pinsker"
"17061",3.53,"const",0.997518579825897,"Pinsker"
"17062",3.54,"const",0.997518579825897,"Pinsker"
"17063",3.55,"const",0.997518579825897,"Pinsker"
"17064",3.56,"const",0.997518579825897,"Pinsker"
"17065",3.57,"const",0.997518579825897,"Pinsker"
"17066",3.58,"const",0.997518579825897,"Pinsker"
"17067",3.59,"const",0.997518579825897,"Pinsker"
"17068",3.6,"const",0.997518579825897,"Pinsker"
"17069",3.61,"const",0.997518579825897,"Pinsker"
"17070",3.62,"const",0.997518579825897,"Pinsker"
"17071",3.63,"const",0.997518579825897,"Pinsker"
"17072",3.64,"const",0.997518579825897,"Pinsker"
"17073",3.65,"const",0.997518579825897,"Pinsker"
"17074",3.66,"const",0.997518579825897,"Pinsker"
"17075",3.67,"const",0.997518579825897,"Pinsker"
"17076",3.68,"const",0.997518579825897,"Pinsker"
"17077",3.69,"const",0.997518579825897,"Pinsker"
"17078",3.7,"const",0.997518579825897,"Pinsker"
"17079",3.71,"const",0.997518579825897,"Pinsker"
"17080",3.72,"const",0.997518579825897,"Pinsker"
"17081",3.73,"const",0.997518579825897,"Pinsker"
"17082",3.74,"const",0.997518579825897,"Pinsker"
"17083",3.75,"const",0.997518579825897,"Pinsker"
"17084",3.76,"const",0.997518579825897,"Pinsker"
"17085",3.77,"const",0.997518579825897,"Pinsker"
"17086",3.78,"const",0.997518579825897,"Pinsker"
"17087",3.79,"const",0.997518579825897,"Pinsker"
"17088",3.8,"const",0.997518579825897,"Pinsker"
"17089",3.81,"const",0.997518579825897,"Pinsker"
"17090",3.82,"const",0.997518579825897,"Pinsker"
"17091",3.83,"const",0.997518579825897,"Pinsker"
"17092",3.84,"const",0.997518579825897,"Pinsker"
"17093",3.85,"const",0.997518579825897,"Pinsker"
"17094",3.86,"const",0.997518579825897,"Pinsker"
"17095",3.87,"const",0.997518579825897,"Pinsker"
"17096",3.88,"const",0.997518579825897,"Pinsker"
"17097",3.89,"const",0.997518579825897,"Pinsker"
"17098",3.9,"const",0.997518579825897,"Pinsker"
"17099",3.91,"const",0.997518579825897,"Pinsker"
"17100",3.92,"const",0.997518579825897,"Pinsker"
"17101",3.93,"const",0.997518579825897,"Pinsker"
"17102",3.94,"const",0.997518579825897,"Pinsker"
"17103",3.95,"const",0.997518579825897,"Pinsker"
"17104",3.96,"const",0.997518579825897,"Pinsker"
"17105",3.97,"const",0.997518579825897,"Pinsker"
"17106",3.98,"const",0.997518579825897,"Pinsker"
"17107",3.99,"const",0.997518579825897,"Pinsker"
"17108",4,"const",0.997518579825897,"Pinsker"
"17109",4.01,"const",0.997518579825897,"Pinsker"
"17110",4.02,"const",0.997518579825897,"Pinsker"
"17111",4.03,"const",0.997518579825897,"Pinsker"
"17112",4.04,"const",0.997518579825897,"Pinsker"
"17113",4.05,"const",0.997518579825897,"Pinsker"
"17114",4.06,"const",0.997518579825897,"Pinsker"
"17115",4.07,"const",0.997518579825897,"Pinsker"
"17116",4.08,"const",0.997518579825897,"Pinsker"
"17117",4.09,"const",0.997518579825897,"Pinsker"
"17118",4.1,"const",0.997518579825897,"Pinsker"
"17119",4.11,"const",0.997518579825897,"Pinsker"
"17120",4.12,"const",0.997518579825897,"Pinsker"
"17121",4.13,"const",0.997518579825897,"Pinsker"
"17122",4.14,"const",0.997518579825897,"Pinsker"
"17123",4.15,"const",0.997518579825897,"Pinsker"
"17124",4.16,"const",0.997518579825897,"Pinsker"
"17125",4.17,"const",0.997518579825897,"Pinsker"
"17126",4.18,"const",0.997518579825897,"Pinsker"
"17127",4.19,"const",0.997518579825897,"Pinsker"
"17128",4.2,"const",0.997518579825897,"Pinsker"
"17129",4.21,"const",0.997518579825897,"Pinsker"
"17130",4.22,"const",0.997518579825897,"Pinsker"
"17131",4.23,"const",0.997518579825897,"Pinsker"
"17132",4.24,"const",0.997518579825897,"Pinsker"
"17133",4.25,"const",0.997518579825897,"Pinsker"
"17134",4.26,"const",0.997518579825897,"Pinsker"
"17135",4.27,"const",0.997518579825897,"Pinsker"
"17136",4.28,"const",0.997518579825897,"Pinsker"
"17137",4.29,"const",0.997518579825897,"Pinsker"
"17138",4.3,"const",0.997518579825897,"Pinsker"
"17139",4.31,"const",0.997518579825897,"Pinsker"
"17140",4.32,"const",0.997518579825897,"Pinsker"
"17141",4.33,"const",0.997518579825897,"Pinsker"
"17142",4.34,"const",0.997518579825897,"Pinsker"
"17143",4.35,"const",0.997518579825897,"Pinsker"
"17144",4.36,"const",0.997518579825897,"Pinsker"
"17145",4.37,"const",0.997518579825897,"Pinsker"
"17146",4.38,"const",0.997518579825897,"Pinsker"
"17147",4.39,"const",0.997518579825897,"Pinsker"
"17148",4.4,"const",0.997518579825897,"Pinsker"
"17149",4.41,"const",0.997518579825897,"Pinsker"
"17150",4.42,"const",0.997518579825897,"Pinsker"
"17151",4.43,"const",0.997518579825897,"Pinsker"
"17152",4.44,"const",0.997518579825897,"Pinsker"
"17153",4.45,"const",0.997518579825897,"Pinsker"
"17154",4.46,"const",0.997518579825897,"Pinsker"
"17155",4.47,"const",0.997518579825897,"Pinsker"
"17156",4.48,"const",0.997518579825897,"Pinsker"
"17157",4.49,"const",0.997518579825897,"Pinsker"
"17158",4.5,"const",0.997518579825897,"Pinsker"
"17159",4.51,"const",0.997518579825897,"Pinsker"
"17160",4.52,"const",0.997518579825897,"Pinsker"
"17161",4.53,"const",0.997518579825897,"Pinsker"
"17162",4.54,"const",0.997518579825897,"Pinsker"
"17163",4.55,"const",0.997518579825897,"Pinsker"
"17164",4.56,"const",0.997518579825897,"Pinsker"
"17165",4.57,"const",0.997518579825897,"Pinsker"
"17166",4.58,"const",0.997518579825897,"Pinsker"
"17167",4.59,"const",0.997518579825897,"Pinsker"
"17168",4.6,"const",0.997518579825897,"Pinsker"
"17169",4.61,"const",0.997518579825897,"Pinsker"
"17170",4.62,"const",0.997518579825897,"Pinsker"
"17171",4.63,"const",0.997518579825897,"Pinsker"
"17172",4.64,"const",0.997518579825897,"Pinsker"
"17173",4.65,"const",0.997518579825897,"Pinsker"
"17174",4.66,"const",0.997518579825897,"Pinsker"
"17175",4.67,"const",0.997518579825897,"Pinsker"
"17176",4.68,"const",0.997518579825897,"Pinsker"
"17177",4.69,"const",0.997518579825897,"Pinsker"
"17178",4.7,"const",0.997518579825897,"Pinsker"
